07_PCA
…
expression_data <- read_tsv('../../data/augmented_meta_gene_table.tsv')

Rows: 6080 Columns: 15
── Column specification ────────────────────────────────────────────────────────
Delimiter: "\t"
chr  (4): Gender, Race, Smoker, gene
dbl (11): Sample, Age, BMI, Lesion, Perilesion, expr_diff, std_Lesion, std_P...

ℹ Use `spec()` to retrieve the full column specification for this data.
ℹ Specify the column types or set `show_col_types = FALSE` to quiet this message.

expression_data

# A tibble: 6,080 × 15
   Sample   Age Gender Race  Smoker   BMI gene       Lesion Perilesion expr_diff
    <dbl> <dbl> <chr>  <chr> <chr>  <dbl> <chr>       <dbl>      <dbl>     <dbl>
 1      1    34 F      B     N       36.9 ENSG00000…   1059        182     5.82 
 2      1    34 F      B     N       36.9 ENSG00000…   1265        359     3.52 
 3      1    34 F      B     N       36.9 ENSG00000…     43        154     0.279
 4      1    34 F      B     N       36.9 ENSG00000…   4132       8824     0.468
 5      1    34 F      B     N       36.9 ENSG00000…    744       2301     0.323
 6      1    34 F      B     N       36.9 ENSG00000…      7         55     0.127
 7      1    34 F      B     N       36.9 ENSG00000…   2467        367     6.72 
 8      1    34 F      B     N       36.9 ENSG00000…    873        330     2.65 
 9      1    34 F      B     N       36.9 ENSG00000…   2199       7149     0.308
10      1    34 F      B     N       36.9 ENSG00000…    679        336     2.02 
# ℹ 6,070 more rows
# ℹ 5 more variables: std_Lesion <dbl>, std_Perilesion <dbl>,
#   log2_Lesion <dbl>, log2_Perilesion <dbl>, log2_expr_change <dbl>
…
